-21.7047399042 0.686000729773
-14.2109455885 0.850814817696
26.0414271454 0.58127881901
-20.6070124093 0.711970238467
-12.8087570624 0.876997264312
-48.6054059255 0.15107356307
25.3545677541 0.597928985877
-0.86684012291 0.999399051203
-12.164278118 0.88836220583
-2.68522630906 0.994248252736
-8.06275105469 0.94932282566
-4.24985639427 0.985654862689
-7.44187552403 0.95666193103
4.58506507476 0.98332237997
17.4903040936 0.782917001044
-7.40205428256 0.957114427146
-25.4037457673 0.596736140378
-7.89967026331 0.951301880298
47.5839750323 0.163427184285
-31.030722922 0.462862793083
-16.9527094471 0.794600754491
-24.4253359002 0.620470246044
14.6158257371 0.842907638728
-33.0528999886 0.41728102716
-14.2025272547 0.850977641181
12.5032029367 0.882440365519
-13.985233076 0.855157689103
-40.4285788164 0.270474896764
-15.086513825 0.833532721583
-15.8713560038 0.817487265976
-16.8506739824 0.796796336148
-3.69988925954 0.989108403241
-8.09905116467 0.948877374877
-4.77504915394 0.981924482282
14.4041357175 0.847060379459
-33.9605008216 0.397463372875
12.5455600555 0.881691672563
10.4317450014 0.916624807095
-19.5802389872 0.73586499555
-33.7128951269 0.402827262372
7.99948575949 0.95009488737
-39.9716772818 0.278541564168
40.7165100395 0.265466306595
33.1188793011 0.415826100846
-3.42568689231 0.990655667619
4.93604471764 0.980697103625
-4.54298889363 0.983624560966
22.9230023 0.656802951199
-31.4417372763 0.453451811412
-5.7249786243 0.97412046314
21.9615605637 0.679873781206
18.126309829 0.768856843261
1.83342134305 0.99731446546
25.6846600169 0.589924091905
38.8718514265 0.298550355074
-11.0590987142 0.906791320924
2.85647044966 0.993493719358
3.25191776818 0.991575709553
-36.4871250274 0.344711227493
-7.34595791083 0.95774810107
24.0696528615 0.629091508029
-28.4416805067 0.523539209857
37.7064803264 0.320644281741
-26.516265241 0.569788603576
26.0083233856 0.582080625963
-12.1349778298 0.888868343449
-26.3018973611 0.574973202376
-13.0495723608 0.872639221854
-23.8715008939 0.633890632138
1.72774102777 0.997614777926
-1.01132755319 0.99918210792
-34.9806785118 0.375717294276
-15.1153673652 0.832951830957
28.8041000371 0.514921435101
-16.7971022521 0.797946189705
-41.8155232046 0.246885556261
2.72125965844 0.994093310188
-19.6776602303 0.733616952466
16.7343069971 0.799291455379
-6.68218822461 0.964909165031
-29.0840223034 0.508289413164
11.5235121078 0.899215048061
-12.1577557196 0.888474955384
-18.4182591374 0.762322323722
32.4201595486 0.431342260501
2.40439448439 0.995385788067
41.738715892 0.248156341182
13.8451538459 0.857828890234
9.6450415583 0.928280377103
43.7455074872 0.216333184214
19.1737841942 0.745196601892
-15.1159953902 0.832939179481
-11.3094859171 0.902737399014
-6.42894774273 0.967475579462
-38.7708661881 0.300428932049
-32.4230849709 0.431276807079
22.8468958872 0.65863582071
5.62627631106 0.974993974403
-21.2009949005 0.697965399883
29.1266350184 0.507281758029
1.05577123725 0.999108675142
25.5989641853 0.592001817567
9.81767739759 0.925788537555
-4.25063819918 0.985649622388
-15.4049670057 0.827082850695
8.11348144176 0.94869979859
-7.76073996379 0.952959124324
-29.0978205264 0.50796307172
21.5428363876 0.689854178179
7.43339225109 0.956758513572
41.4843136087 0.252395337672
-32.8346644466 0.422108811319
-27.4363738934 0.547603557021
16.5235572735 0.803785886193
-36.0113239569 0.354356304375
15.6455640671 0.822154504441
-36.7831346125 0.338781746851
-3.8811739311 0.988021511333
-43.8565370281 0.214656399291
13.9123908825 0.856549049018
-37.2626644472 0.329293796124
30.2096730589 0.481861053585
48.9859322946 0.146651354076
-11.2645038003 0.903471027258
-20.1944502439 0.72162284168
-17.6147418711 0.780185704497
15.4520000168 0.826123134263
-13.1267758005 0.871229545532
-24.7544724223 0.612487267874
-34.7409994953 0.38077385491
49.6581452186 0.139074556877
-20.2148101603 0.721148037825
-1.17827526466 0.998889950482
36.0729745639 0.353098722112
-26.3646635157 0.573454670388
8.3179622365 0.946153182398
4.86852392419 0.981216627985
-17.3886993737 0.785139796197
-11.4888570152 0.899788927275
-36.7652564613 0.33913830816
18.270675846 0.765631667515
6.63490683651 0.965395332083
-20.7425085398 0.708786214877
33.7086427694 0.402919665587
-20.06868423 0.724552055631
3.64129492705 0.989448835211
-8.11370896988 0.948696996406
-6.59934721064 0.9657588565
-19.7959891383 0.730880762032
-19.9395013032 0.72755406265
21.4751729466 0.69146244248
31.6858062654 0.447896878515
12.1103399154 0.889293220255
-7.45454857192 0.956517460658
-15.6785476731 0.821475236909
29.534135397 0.497672960793
6.47644966562 0.967001221623
-2.06889820267 0.996581584314
-7.9827827879 0.950297812349
7.8751817857 0.951595917671
-42.0325200081 0.243317965597
16.10473458 0.812621383618
-16.6083612172 0.801981186309
-18.9085308696 0.751243059545
4.34063082671 0.985040166194
-34.2090494411 0.392112201852
9.69188340825 0.927607968491
-12.6192967275 0.880383809075
-24.4834741027 0.619060419198
-12.820033382 0.87679452708
22.9681273271 0.655715745763
45.0303902323 0.197466005092
-33.0912933224 0.416434140887
-9.06119162783 0.936426583268
-8.26831928432 0.946776631667
-13.1079416472 0.871573999279
-18.3939214998 0.762868904351
-15.5725511963 0.823655037442
-40.8105120026 0.263843722343
30.4728422453 0.475744044218
-46.3378602523 0.179468094349
15.8590204485 0.817743285395
-20.7938522895 0.707577981435
34.6350592717 0.383019313337
-19.2257768954 0.744007325731
6.73557130381 0.96435640629
33.5187698057 0.407055254044
26.9775144406 0.558651727167
-28.143177203 0.530661605607
24.4270620091 0.620428390751
15.9756657437 0.815317625793
12.9715852854 0.874057059618
-14.7379123813 0.840494517475
-2.47169149209 0.995124516875
-14.236927708 0.850311872091
-9.29387944165 0.933232459849
-18.7870726082 0.753999723453
-46.9235810276 0.171794211171
-34.5143057456 0.385586456178
1.40090376815 0.998431206751
-22.0977653126 0.676617616989
-1.16862293798 0.998908052952
-30.0924937937 0.48459269443
-4.48760855964 0.984018181991
-2.88825402192 0.993348610038
22.3596179236 0.670345511339
-21.8979869711 0.681392032469
18.2795300389 0.76543347262
11.8135200472 0.894359548864
-49.1724947545 0.144518551974
-5.68774211788 0.974451696903
-6.12079114425 0.970473417387
6.28213923699 0.968920979699
36.9673948129 0.335118652466
-25.1382555659 0.603176444276
3.26908269362 0.9914869219
4.65548836537 0.982810595426
-35.0586220585 0.374080006055
33.0460898451 0.417431323331
9.25641844024 0.933751416185
21.5303380446 0.690151344869
0.924589058461 0.999316341859
8.34803332554 0.94577391562
1.88131823687 0.997172518231
-4.3237136006 0.985155680096
32.5043602557 0.429459967764
2.54753174244 0.994821520413
-6.47204290238 0.967045365031
18.8325882028 0.75296758288
-19.6417752166 0.734445514196
3.92701478781 0.987738634595
22.204299298 0.674067701454
34.3409859704 0.389285351085
7.82465631794 0.952199985742
8.33236547354 0.945971675692
10.5771687393 0.914387168928
19.8088619447 0.730582725448
-37.3183067072 0.328202391908
8.60161947824 0.942527402211
5.50350444037 0.976060361287
1.69729124883 0.997698015573
-3.19413863621 0.991871201522
-21.2854196653 0.695965441943
27.7679371713 0.539643432452
0.240173483426 0.999953854423
-2.88487178383 0.993364127128
-33.0969243477 0.416309992884
-12.6833347759 0.87924333777
-6.7228764697 0.964488225663
-17.4011713299 0.784867307184
-1.06410768088 0.999094550042
17.6891039146 0.778548867875
-5.48158010766 0.976248439414
5.62129329374 0.975037691644
8.32923490495 0.946011150235
13.3073735294 0.867908528142
31.0647600327 0.462080827127
4.05195619868 0.986951204242
16.5493510099 0.803237522338
-10.6117852034 0.913850773683
-33.8853427955 0.39908806782
-5.35130292456 0.97735126781
-6.6185543539 0.965562728376
18.3519781222 0.763810100094
-15.3895197233 0.827397659374
14.0777786954 0.853382783538
-2.61645059145 0.994538318555
29.0804509178 0.508373888839
6.42731697237 0.967491806575
-24.4732948303 0.61930727258
30.159869492 0.4830214665
-12.9793265351 0.873916597708
19.1659098017 0.745376604583
-20.3053488702 0.719034632956
-15.5652591002 0.823804666259
-6.98203016885 0.96175167453
-16.3804125629 0.806820283464
-27.45839617 0.54707421126
13.2114484162 0.869676569714
16.7103825131 0.799803259657
-36.9048502619 0.336359625207
9.45712792977 0.930949901223
-1.8300943051 0.997324190246
-20.6344821235 0.711325262438
24.0933144309 0.628518233513
6.61845478233 0.965563746489
27.1951333618 0.553407741444
42.3420694891 0.23828670704
-42.6420574927 0.233475985318
-22.3640450517 0.670239338424
31.5033545368 0.45204702016
-10.7190982783 0.912178801069
4.57090389196 0.983424382813
-3.84400832476 0.988248474938
13.4113506661 0.865981735446
-29.6805821196 0.494232332344
-18.950372693 0.750291635903
-19.7575367795 0.731770595931
-9.55638141506 0.929545482682
17.528981539 0.782069118875
-4.61663276588 0.983093900998
-28.8867229852 0.512961640297
-27.7648356464 0.539717794514
-8.64025711454 0.942025217679
13.0483664628 0.87266119271
3.93517557027 0.987687935963
-2.02502579708 0.996724791652
1.7878813023 0.99744605125
