-8.85574567167 0.787777571108
-17.6992690746 0.735863869995
-15.8194610633 0.895468899965
-0.541104960103 0.115800105799
-17.5322116622 0.75179554867
-10.3579542558 0.907601313036
-10.3120755564 0.904524074142
-4.39641395988 0.357693406486
-5.96386236599 0.502781068249
-10.5340936003 0.919013847711
2.06144909935 0.0428240149954
-9.97895150365 0.880944902539
-14.3891318578 0.973554752555
1.79804623629 0.0477670569959
-8.57663548362 0.762043122297
-4.96623267361 0.408032449049
-4.6558328764 0.380216053947
-16.2194085905 0.865928738317
-18.5954333023 0.647364696607
-10.8242556381 0.936366701092
-6.01670462277 0.50798096119
-10.4386064939 0.912906929351
-14.5457704299 0.967358423072
-14.4057654607 0.972926347213
-9.47817969085 0.841754461495
-14.4716674773 0.970367292324
-9.22309378931 0.82026707949
-12.0098964882 0.986476922875
-12.2637601078 0.99249980706
-13.5747065534 0.995423177628
-14.5495953855 0.967199364314
-7.65476296342 0.672450209599
-10.5991506956 0.923064071498
-15.0714885578 0.942143083291
-17.1260287985 0.789428492247
-8.92541608198 0.794067677841
-13.0289261185 0.999988378952
-11.6207583644 0.973925041886
-6.81661337161 0.587998118745
-12.2591883608 0.992406727268
0.168348704046 0.0899583549275
-7.86049264418 0.692900718351
-7.83958314096 0.690831211395
-13.3367008468 0.998426690892
-12.3227015509 0.993648959365
-15.6534943602 0.906837401558
-17.2805363508 0.775314913339
-13.3204777236 0.998574545104
-4.36538656641 0.355046104166
-15.3119532111 0.928450803946
-7.80159337634 0.687065646194
-14.1688280593 0.981204450336
-8.72548296078 0.775869629103
-19.0694159526 0.599513821292
-17.43124341 0.761305097021
-18.3617476475 0.670801193418
-12.4969632769 0.99649164171
-9.14584072079 0.813578298824
-7.05658339834 0.612250417401
-13.1251873006 0.999782358962
-17.128442455 0.789210075995
-5.34766233757 0.443388317732
-7.60850214057 0.667827292596
-11.3082597758 0.961029866939
-15.3935579053 0.92351235275
-6.97270115065 0.603771080548
-8.89770658992 0.791572750473
-17.0418412961 0.797004008821
-12.5558594542 0.997264015972
-15.0949096531 0.940867061538
-11.2268356946 0.957271510806
-10.5643587688 0.920909302204
-14.1929208072 0.980429318694
-12.1415377654 0.989816685105
-14.3847423279 0.973719405454
-17.2056957705 0.782184246272
-14.1636077631 0.981370397022
-8.83997054677 0.786345544548
-2.03986087145 0.188548895579
-17.1663632272 0.785769784749
-15.7395121984 0.901013445698
-2.8944466061 0.242109779981
-16.8811927775 0.81121880593
-17.6314887643 0.742356105315
-6.56913112349 0.563048266446
-6.02787101627 0.509081590255
-13.1587855613 0.999649882771
-18.3115133572 0.675815106128
-13.6600411707 0.993967514132
2.45281126695 0.036278894997
-9.17006249849 0.815684147468
-7.7947464446 0.686386234407
-14.7706447947 0.957390228675
-10.6818829681 0.928082863176
-9.42756111169 0.837566647757
-1.42544079726 0.155563652852
-18.012257702 0.705444789754
-8.63436569777 0.767432278625
-7.25139915266 0.63192918491
-17.0441111014 0.796800870223
-13.3987634708 0.997793932706
-12.6031154429 0.997814650366
-13.058856482 0.999951888859
-6.00801429956 0.507124820405
-13.6842469659 0.993518403557
-16.2004587566 0.867393099055
-9.54048984324 0.846855546435
-16.4153538492 0.850433622476
-17.0669499961 0.79475342881
-9.48846079255 0.842600272839
-19.8756647847 0.518614744238
-19.7951235006 0.526606633082
-1.15007683972 0.142233215344
-13.8162587398 0.990788819546
-17.2394275297 0.779095638986
2.67051366574 0.0330205567435
-3.95136593823 0.320718538869
-12.8328975214 0.999612252439
-12.58697073 0.997633455001
-18.2436721316 0.682569966608
-8.85654164087 0.787849751953
-14.5129387375 0.968708595638
-15.9753602239 0.884303351389
-6.79733480975 0.58605127541
-15.8796851733 0.891210333137
-3.90756412381 0.317198460973
-11.1350796756 0.952843551517
-19.4275037703 0.563386742866
-3.92503111235 0.318599553768
-1.33371667712 0.151025305665
2.25903468392 0.0394049810373
-11.2446133518 0.958105888644
-9.53081032502 0.84606708569
-9.08074122868 0.807880184242
-11.034072179 0.947736489034
-19.9823176091 0.508077311251
-7.16640935616 0.623348379759
-18.2911638538 0.677843328798
-19.4164582638 0.564497928737
-9.80272356705 0.867638409182
-5.62705375509 0.470008419197
-9.90482448686 0.875415101353
-1.31957096889 0.150334156151
-10.2081169988 0.897395605981
-15.7327572078 0.901476148874
-7.68866590272 0.675832980273
-10.6448713997 0.925856024215
